Section 13 Nouvelle base de données individuelles à prendre en main : le RP 2018 | DATA MINING
…
13.3 Tableaux de contingence par IRIS (découpage territorial infracommunal)

Dans l’analyse de clustering que nous allons réaliser ensuite, nous souhaitons décrire la population d’un département ou commune selon ses caractéristiques socio-démographiques et socio-professionnelles au niveau territorial le plus fin, autrement dit l’IRIS. Pour cela, il faut établir des statistiques du nombre de personnes concernées pour chaque caractéristique par IRIS du département ou de la commune choisie : on crée ainsi des tableaux de contingence par IRIS pour chacune de ces caractéristiques.

Par exemple, pour connaître le nombre de chômeurs par IRIS du 12ème arrondissement de Paris, il faut : i) utiliser le code IRIS et récupérer les 5 premiers chiffres pour avoir le niveau commune (pour Paris, Marseille ou Lyon, on peut également utiliser la variable ARM), ii) filtrer pour n’avoir que les personnes dont l’activité est “chômeur” (TACT == "12") et la commune correspondant au 12ème arrondissement, et iii) calculer la somme par IRIS :

RP %>% 
  mutate(COM = substr(IRIS, 1, 5)) %>% 
  filter(TACT == "12" & COM == "75112") %>% # ou ARM == "75112"
  group_by(IRIS) %>%  
  summarise(nb_chômeurs = round(sum(IPONDI)))

# A tibble: 57 x 2
   IRIS      nb_chômeurs
   <fct>           <dbl>
 1 751124501         252
 2 751124502         268
 3 751124503         133
 4 751124504         113
 5 751124505         145
 6 751124506         144
 7 751124507         123
 8 751124508         129
 9 751124509          89
10 751124510         179
# ... with 47 more rows

Si on veut englober les arrondissements de l’Est parisien (11ème, 12ème et 20ème arrondissements de Paris) :

RP %>% 
  mutate(COM = substr(IRIS, 1, 5)) %>% 
  filter(TACT == "12" & COM %in% c("75111", "75112", "75120")) %>%  
  group_by(IRIS) %>%
  summarise(nb_chômeurs = round(sum(IPONDI)))

# A tibble: 192 x 2
   IRIS      nb_chômeurs
   <fct>           <dbl>
 1 751114101         274
 2 751114102         215
 3 751114103         143
 4 751114104         133
 5 751114105         111
 6 751114106         132
 7 751114107         185
 8 751114108         136
 9 751114109         216
10 751114110         171
# ... with 182 more rows
…
  return(var_sum)
}

Pour vérifier que la fonction tourne bien, on procède au même exemple que précédemment, pour Paris 12ème puis l’Est parisien :

RP %>% sum_var_IRIS(codedept=" ", codecom = c("75111", "75112", "75120"), 
                    IRIS, nom_var = nbhab)

# A tibble: 193 x 2
   IRIS      nbhab
   <fct>     <dbl>
 1 751114101  3145
 2 751114102  2335
 3 751114103  1824
 4 751114104  1547
 5 751114105  1932
 6 751114106  2622
 7 751114107  2560
 8 751114108  2333
 9 751114109  2833
10 751114110  1646
# ... with 183 more rows

RP %>% filter(TACT == "12") %>% 
  sum_var_IRIS(codedept=" ", codecom = c("75111", "75112", "75120"), IRIS, 
               nom_var = nbchom)

# A tibble: 192 x 2
   IRIS      nbchom
   <fct>      <dbl>
 1 751114101    274
 2 751114102    215
 3 751114103    143
 4 751114104    133
 5 751114105    111
 6 751114106    132
 7 751114107    185
 8 751114108    136
 9 751114109    216
10 751114110    171
# ... with 182 more rows

Il y a donc 193 IRIS dans l’Est parisien et on voit bien qu’on a bien une ligne par IRIS (1ère colonne) et une (seconde) colonne renseignant du nombre d’habitants, puis du nombre de chômeurs.

Mais pour des variables à plusieurs modalités, comme l’âge ou la PCS, il faut ajouter une étape supplémentaire car on aura d’abord plusieurs lignes (autant qu’il y a de modalités dans la variable) par IRIS. Par exemple, pour l’âge avec la variable AGER20 :

RP %>% sum_var_IRIS(codedept = " ", codecom = c("75111", "75112", "75120"), 
                    IRIS, AGER20, nom_var = Nb_age)

`summarise()` has grouped output by 'IRIS'. You can override using the
`.groups` argument.

# A tibble: 2,494 x 3
   IRIS      AGER20 Nb_age
   <fct>     <fct>   <dbl>
 1 751114101 2          95
 2 751114101 5          81
 3 751114101 10        131
 4 751114101 14        127
 5 751114101 17        108
 6 751114101 19         77
 7 751114101 24        215
 8 751114101 29        356
 9 751114101 39        502
10 751114101 54        577
# ... with 2,484 more rows

Il faut donc créer une autre fonction que l’on va nommer tab_cont_n_iris pour créer un tableau de contingence avec une seule ligne par IRIS, et autant de colonnes qu’il y a de modalités dans cette variable. Pour cela, on peut utiliser la fonction pivot_wider() après la fonction déjà créée sum_var_IRIS().

sum_var_IRIS(RP, codedept = " ", codecom = c("75111", "75112", "75120"),
             IRIS, AGER20, nom_var = Nb_age) %>% 
  pivot_wider(names_from = AGER20, values_from = Nb_age, values_fill = 0, 
              names_prefix = "age_")

`summarise()` has grouped output by 'IRIS'. You can override using the
`.groups` argument.

# A tibble: 193 x 14
   IRIS      age_2 age_5 age_10 age_14 age_17 age_19 age_24 age_29 age_39 age_54
   <fct>     <dbl> <dbl>  <dbl>  <dbl>  <dbl>  <dbl>  <dbl>  <dbl>  <dbl>  <dbl>
 1 751114101    95    81    131    127    108     77    215    356    502    577
 2 751114102    60    34     42     39     39     38    205    407    531    429
 3 751114103    54    33     80     59     43     63    123    301    354    315
 4 751114104    54    23     72     40     21     23    146    277    323    288
 5 751114105    60    77     54     45     36     24    128    274    377    375
 6 751114106    71    96    115     58     62     61    151    362    480    595
 7 751114107    74    50     73     57     34     43    167    519    550    483
 8 751114108    75    72     75     75     76     38    147    290    456    535
 9 751114109    61    55     89     67     64     93    348    428    562    535
10 751114110    56    30     69     52     36     30    120    275    332    334
# ... with 183 more rows, and 3 more variables: age_64 <dbl>, age_79 <dbl>,
#   age_80 <dbl>
…
  return(tab_n)
}

Pour la variable d’âge, cela donnera :

Nbage <- tab_cont_n_iris(RP, codedept = " ", codecom = c("75111", "75112", "75120"), IRIS, AGER20, nom_var = Nb_age,
                         var = AGER20, prefix_var = "age_")

`summarise()` has grouped output by 'IRIS'. You can override using the
`.groups` argument.

Nbage

# A tibble: 193 x 14
   IRIS      age_2 age_5 age_10 age_14 age_17 age_19 age_24 age_29 age_39 age_54
   <fct>     <dbl> <dbl>  <dbl>  <dbl>  <dbl>  <dbl>  <dbl>  <dbl>  <dbl>  <dbl>
 1 751114101    95    81    131    127    108     77    215    356    502    577
 2 751114102    60    34     42     39     39     38    205    407    531    429
 3 751114103    54    33     80     59     43     63    123    301    354    315
 4 751114104    54    23     72     40     21     23    146    277    323    288
 5 751114105    60    77     54     45     36     24    128    274    377    375
 6 751114106    71    96    115     58     62     61    151    362    480    595
 7 751114107    74    50     73     57     34     43    167    519    550    483
 8 751114108    75    72     75     75     76     38    147    290    456    535
 9 751114109    61    55     89     67     64     93    348    428    562    535
10 751114110    56    30     69     52     36     30    120    275    332    334
# ... with 183 more rows, and 3 more variables: age_64 <dbl>, age_79 <dbl>,
#   age_80 <dbl>
…
